%YAML 1.1
%TAG !u! tag:unity3d.com,2011:
--- !u!1 &6484409439357313954
GameObject:
  m_ObjectHideFlags: 0
  m_CorrespondingSourceObject: {fileID: 0}
  m_PrefabInstance: {fileID: 0}
  m_PrefabAsset: {fileID: 0}
  serializedVersion: 6
  m_Component:
  - component: {fileID: 6484409439357313956}
  - component: {fileID: 6484409439357313957}
  m_Layer: 0
  m_Name: Eff_ani_iceberg
  m_TagString: Untagged
  m_Icon: {fileID: 0}
  m_NavMeshLayer: 0
  m_StaticEditorFlags: 0
  m_IsActive: 1
--- !u!4 &6484409439357313956
Transform:
  m_ObjectHideFlags: 0
  m_CorrespondingSourceObject: {fileID: 0}
  m_PrefabInstance: {fileID: 0}
  m_PrefabAsset: {fileID: 0}
  m_GameObject: {fileID: 6484409439357313954}
  m_LocalRotation: {x: 0, y: 0, z: 0, w: 1}
  m_LocalPosition: {x: 0, y: 0, z: 0}
  m_LocalScale: {x: 1, y: 1, z: 1}
  m_Children:
  - {fileID: 6807183664624499221}
  m_Father: {fileID: 0}
  m_RootOrder: 0
  m_LocalEulerAnglesHint: {x: 0, y: 0, z: 0}
--- !u!95 &6484409439357313957
Animator:
  serializedVersion: 3
  m_ObjectHideFlags: 0
  m_CorrespondingSourceObject: {fileID: 0}
  m_PrefabInstance: {fileID: 0}
  m_PrefabAsset: {fileID: 0}
  m_GameObject: {fileID: 6484409439357313954}
  m_Enabled: 1
  m_Avatar: {fileID: 0}
  m_Controller: {fileID: 9100000, guid: 9916aac20a77a794fa7053e0c2543fe6, type: 2}
  m_CullingMode: 0
  m_UpdateMode: 0
  m_ApplyRootMotion: 0
  m_LinearVelocityBlending: 0
  m_WarningMessage: 
  m_HasTransformHierarchy: 1
  m_AllowConstantClipSamplingOptimization: 1
  m_KeepAnimatorControllerStateOnDisable: 0
--- !u!1001 &6484409438977760766
PrefabInstance:
  m_ObjectHideFlags: 0
  serializedVersion: 2
  m_Modification:
    m_TransformParent: {fileID: 6484409439357313956}
    m_Modifications:
    - target: {fileID: -8679921383154817045, guid: c1f2dc89a454eac43949c21889faa524,
        type: 3}
      propertyPath: m_LocalPosition.x
      value: 0
      objectReference: {fileID: 0}
    - target: {fileID: -8679921383154817045, guid: c1f2dc89a454eac43949c21889faa524,
        type: 3}
      propertyPath: m_LocalPosition.y
      value: 0
      objectReference: {fileID: 0}
    - target: {fileID: -8679921383154817045, guid: c1f2dc89a454eac43949c21889faa524,
        type: 3}
      propertyPath: m_LocalPosition.z
      value: 0
      objectReference: {fileID: 0}
    - target: {fileID: -8679921383154817045, guid: c1f2dc89a454eac43949c21889faa524,
        type: 3}
      propertyPath: m_LocalRotation.x
      value: -0
      objectReference: {fileID: 0}
    - target: {fileID: -8679921383154817045, guid: c1f2dc89a454eac43949c21889faa524,
        type: 3}
      propertyPath: m_LocalRotation.y
      value: -0
      objectReference: {fileID: 0}
    - target: {fileID: -8679921383154817045, guid: c1f2dc89a454eac43949c21889faa524,
        type: 3}
      propertyPath: m_LocalRotation.z
      value: -0
      objectReference: {fileID: 0}
    - target: {fileID: -8679921383154817045, guid: c1f2dc89a454eac43949c21889faa524,
        type: 3}
      propertyPath: m_LocalRotation.w
      value: 1
      objectReference: {fileID: 0}
    - target: {fileID: -8679921383154817045, guid: c1f2dc89a454eac43949c21889faa524,
        type: 3}
      propertyPath: m_RootOrder
      value: 0
      objectReference: {fileID: 0}
    - target: {fileID: -8679921383154817045, guid: c1f2dc89a454eac43949c21889faa524,
        type: 3}
      propertyPath: m_LocalEulerAnglesHint.x
      value: 0
      objectReference: {fileID: 0}
    - target: {fileID: -8679921383154817045, guid: c1f2dc89a454eac43949c21889faa524,
        type: 3}
      propertyPath: m_LocalEulerAnglesHint.y
      value: 0
      objectReference: {fileID: 0}
    - target: {fileID: -8679921383154817045, guid: c1f2dc89a454eac43949c21889faa524,
        type: 3}
      propertyPath: m_LocalEulerAnglesHint.z
      value: 0
      objectReference: {fileID: 0}
    - target: {fileID: -4326168389007755317, guid: c1f2dc89a454eac43949c21889faa524,
        type: 3}
      propertyPath: m_LocalPosition.x
      value: -0.3088788
      objectReference: {fileID: 0}
    - target: {fileID: -4326168389007755317, guid: c1f2dc89a454eac43949c21889faa524,
        type: 3}
      propertyPath: m_LocalPosition.z
      value: 0.361483
      objectReference: {fileID: 0}
    - target: {fileID: -4326168389007755317, guid: c1f2dc89a454eac43949c21889faa524,
        type: 3}
      propertyPath: m_LocalRotation.x
      value: 0
      objectReference: {fileID: 0}
    - target: {fileID: -4326168389007755317, guid: c1f2dc89a454eac43949c21889faa524,
        type: 3}
      propertyPath: m_LocalRotation.w
      value: 1
      objectReference: {fileID: 0}
    - target: {fileID: -4326168389007755317, guid: c1f2dc89a454eac43949c21889faa524,
        type: 3}
      propertyPath: m_LocalEulerAnglesHint.x
      value: 0
      objectReference: {fileID: 0}
    - target: {fileID: -4326168389007755317, guid: c1f2dc89a454eac43949c21889faa524,
        type: 3}
      propertyPath: m_LocalRotation.y
      value: -0
      objectReference: {fileID: 0}
    - target: {fileID: -4326168389007755317, guid: c1f2dc89a454eac43949c21889faa524,
        type: 3}
      propertyPath: m_LocalRotation.z
      value: -0
      objectReference: {fileID: 0}
    - target: {fileID: -4326168389007755317, guid: c1f2dc89a454eac43949c21889faa524,
        type: 3}
      propertyPath: m_LocalEulerAnglesHint.z
      value: 0
      objectReference: {fileID: 0}
    - target: {fileID: -4326168389007755317, guid: c1f2dc89a454eac43949c21889faa524,
        type: 3}
      propertyPath: m_LocalEulerAnglesHint.y
      value: 0
      objectReference: {fileID: 0}
    - target: {fileID: -2886815068812659596, guid: c1f2dc89a454eac43949c21889faa524,
        type: 3}
      propertyPath: m_LocalPosition.x
      value: -0.6182329
      objectReference: {fileID: 0}
    - target: {fileID: -2886815068812659596, guid: c1f2dc89a454eac43949c21889faa524,
        type: 3}
      propertyPath: m_LocalPosition.z
      value: 0.5337971
      objectReference: {fileID: 0}
    - target: {fileID: -1488294618916233614, guid: c1f2dc89a454eac43949c21889faa524,
        type: 3}
      propertyPath: m_LocalPosition.x
      value: -0.2328975
      objectReference: {fileID: 0}
    - target: {fileID: -1488294618916233614, guid: c1f2dc89a454eac43949c21889faa524,
        type: 3}
      propertyPath: m_LocalPosition.z
      value: -0.6491148
      objectReference: {fileID: 0}
    - target: {fileID: -1488294618916233614, guid: c1f2dc89a454eac43949c21889faa524,
        type: 3}
      propertyPath: m_LocalRotation.x
      value: 0
      objectReference: {fileID: 0}
    - target: {fileID: -1488294618916233614, guid: c1f2dc89a454eac43949c21889faa524,
        type: 3}
      propertyPath: m_LocalRotation.z
      value: -0
      objectReference: {fileID: 0}
    - target: {fileID: -1488294618916233614, guid: c1f2dc89a454eac43949c21889faa524,
        type: 3}
      propertyPath: m_LocalRotation.w
      value: 1
      objectReference: {fileID: 0}
    - target: {fileID: -1488294618916233614, guid: c1f2dc89a454eac43949c21889faa524,
        type: 3}
      propertyPath: m_LocalEulerAnglesHint.z
      value: 0
      objectReference: {fileID: 0}
    - target: {fileID: -1488294618916233614, guid: c1f2dc89a454eac43949c21889faa524,
        type: 3}
      propertyPath: m_LocalRotation.y
      value: -0
      objectReference: {fileID: 0}
    - target: {fileID: -1488294618916233614, guid: c1f2dc89a454eac43949c21889faa524,
        type: 3}
      propertyPath: m_LocalEulerAnglesHint.x
      value: 0
      objectReference: {fileID: 0}
    - target: {fileID: -1488294618916233614, guid: c1f2dc89a454eac43949c21889faa524,
        type: 3}
      propertyPath: m_LocalEulerAnglesHint.y
      value: 0
      objectReference: {fileID: 0}
    - target: {fileID: 919132149155446097, guid: c1f2dc89a454eac43949c21889faa524,
        type: 3}
      propertyPath: m_Name
      value: floeice
      objectReference: {fileID: 0}
    - target: {fileID: 6231409729317120895, guid: c1f2dc89a454eac43949c21889faa524,
        type: 3}
      propertyPath: m_LocalPosition.x
      value: 0.6590629
      objectReference: {fileID: 0}
    - target: {fileID: 6231409729317120895, guid: c1f2dc89a454eac43949c21889faa524,
        type: 3}
      propertyPath: m_LocalPosition.z
      value: 0.5346506
      objectReference: {fileID: 0}
    - target: {fileID: 6231409729317120895, guid: c1f2dc89a454eac43949c21889faa524,
        type: 3}
      propertyPath: m_LocalRotation.x
      value: 0
      objectReference: {fileID: 0}
    - target: {fileID: 6231409729317120895, guid: c1f2dc89a454eac43949c21889faa524,
        type: 3}
      propertyPath: m_LocalRotation.z
      value: -0
      objectReference: {fileID: 0}
    - target: {fileID: 6231409729317120895, guid: c1f2dc89a454eac43949c21889faa524,
        type: 3}
      propertyPath: m_LocalRotation.w
      value: 1
      objectReference: {fileID: 0}
    - target: {fileID: 6231409729317120895, guid: c1f2dc89a454eac43949c21889faa524,
        type: 3}
      propertyPath: m_LocalEulerAnglesHint.z
      value: 0
      objectReference: {fileID: 0}
    - target: {fileID: 6231409729317120895, guid: c1f2dc89a454eac43949c21889faa524,
        type: 3}
      propertyPath: m_LocalRotation.y
      value: -0
      objectReference: {fileID: 0}
    - target: {fileID: 6231409729317120895, guid: c1f2dc89a454eac43949c21889faa524,
        type: 3}
      propertyPath: m_LocalEulerAnglesHint.x
      value: 0
      objectReference: {fileID: 0}
    - target: {fileID: 6231409729317120895, guid: c1f2dc89a454eac43949c21889faa524,
        type: 3}
      propertyPath: m_LocalEulerAnglesHint.y
      value: 0
      objectReference: {fileID: 0}
    - target: {fileID: 6999993303983028210, guid: c1f2dc89a454eac43949c21889faa524,
        type: 3}
      propertyPath: m_LocalPosition.x
      value: 0.6119249
      objectReference: {fileID: 0}
    - target: {fileID: 6999993303983028210, guid: c1f2dc89a454eac43949c21889faa524,
        type: 3}
      propertyPath: m_LocalPosition.z
      value: -0.2939963
      objectReference: {fileID: 0}
    - target: {fileID: 6999993303983028210, guid: c1f2dc89a454eac43949c21889faa524,
        type: 3}
      propertyPath: m_LocalRotation.x
      value: 0
      objectReference: {fileID: 0}
    - target: {fileID: 6999993303983028210, guid: c1f2dc89a454eac43949c21889faa524,
        type: 3}
      propertyPath: m_LocalRotation.z
      value: -0
      objectReference: {fileID: 0}
    - target: {fileID: 6999993303983028210, guid: c1f2dc89a454eac43949c21889faa524,
        type: 3}
      propertyPath: m_LocalRotation.w
      value: 1
      objectReference: {fileID: 0}
    - target: {fileID: 6999993303983028210, guid: c1f2dc89a454eac43949c21889faa524,
        type: 3}
      propertyPath: m_LocalEulerAnglesHint.z
      value: 0
      objectReference: {fileID: 0}
    m_RemovedComponents: []
  m_SourcePrefab: {fileID: 100100000, guid: c1f2dc89a454eac43949c21889faa524, type: 3}
--- !u!4 &6807183664624499221 stripped
Transform:
  m_CorrespondingSourceObject: {fileID: -8679921383154817045, guid: c1f2dc89a454eac43949c21889faa524,
    type: 3}
  m_PrefabInstance: {fileID: 6484409438977760766}
  m_PrefabAsset: {fileID: 0}
